STA323 – Databases, SQL and dplyr
…
Adding to tables

Data can be added to an existing table via dbAppendTable().

dbAppendTable(con, name = "iris", value = iris)

Warning: Factors converted to character

[1] 150

dbGetQuery(con, "select * from iris") |> 
  as_tibble()

# A tibble: 150 × 5
   Sepal.Length Sepal.Width Petal.Length Petal.Width Species
          <dbl>       <dbl>        <dbl>       <dbl> <chr>  
 1          5.1         3.5          1.4         0.2 setosa 
 2          4.9         3            1.4         0.2 setosa 
 3          4.7         3.2          1.3         0.2 setosa 
 4          4.6         3.1          1.5         0.2 setosa 
 5          5           3.6          1.4         0.2 setosa 
 6          5.4         3.9          1.7         0.4 setosa 
 7          4.6         3.4          1.4         0.3 setosa 
 8          5           3.4          1.5         0.2 setosa 
 9          4.4         2.9          1.4         0.2 setosa 
10          4.9         3.1          1.5         0.1 setosa 
# ℹ 140 more rows
…
dplyr::collect(oct_21)

# A tibble: 991 × 3
   origin dest  tailnum
   <chr>  <chr> <chr>  
 1 EWR    CLT   N152UW 
 2 EWR    IAH   N535UA 
 3 JFK    MIA   N5BSAA 
 4 JFK    SJU   N531JB 
 5 JFK    BQN   N827JB 
 6 LGA    IAH   N15710 
 7 JFK    IAD   N825AS 
 8 EWR    TPA   N802UA 
 9 LGA    ATL   N996DL 
10 JFK    FLL   N627JB 
# ℹ 981 more rows
…
